{
    "name": "gfa_nonres_curr_density",
    "profile": "raster-data-resource",
    "datapackage_version": "1.0",
    "version": "0.18.0",
    "created": "2020-08-09 19:24:36",
    "title": "Heated gross floor area density map of non-residential buildings in EU28 + Switzerland, Norway and Iceland for the year 2015",
    "description": "The map shows the heated gross floor area of non-residential buildings in each ha with m2/ha (10.000 m2) unit",
    "keywords": [
        "EU28",
        "EUROPE",
        "heated gross floor area map",
        "raster"
    ],
    "licenses": [
        {
            "name": "CC-BY-4.0",
            "path": "https://creativecommons.org/licenses/by/4.0/",
            "title": "Creative Commons Attribution 4.0"
        }
    ],
    "sources": [
        {
            "name": "",
            "path": ""
        }
    ],
    "contributors": [
        {
            "title": "Andreas Mueller",
            "email": "mueller@eeg.tuwien.ac.at",
            "role": "author",
            "organization": "e-think / tu wien"
        },
        {
            "title": "Mostafa Fallahnejad",
            "email": "fallahnejad@eeg.tuwien.ac.at",
            "role": "author",
            "organization": "tu wien"
        }
    ],
    "id": "8dee6e2d-dcee-3948-bf37-78b890fccdae",
    "resources": [
        {
            "name": "gfa_nonres_curr_density",
            "title": "Heated gross floor area density map of non-residential buildings in EU28 + Switzerland, Norway and Iceland for the year 2015",
            "path": "data/gfa_nonres_curr_density.tif",
            "unit": "m2/ha (10.000 m2)",
            "description": "The map shows the heated gross floor area of non-residential buildings in each ha with m2/ha (10.000 m2) unit",
            "temporal": {
                "start": "2015-01-01 00:00:00",
                "end": "2015-12-31 24:00:00"
            },
            "format": "tif",
            "bytes": "5537",
            "raster": {
                "epsg": "3035",
                "num_of_bands": 1,
                "extent": {
                    "minx": 944000.0,
                    "miny": 938000.0,
                    "maxx": 6528000.0,
                    "maxy": 5414000.0
                },
                "resolution": {
                    "xRes": 100.0,
                    "yRes": -100.0
                },
                "dimension": {
                    "columns": 55840,
                    "rows": 44760
                },
                "origin": [
                    944000.0,
                    5414000.0
                ],
                "transformation": {
                    "operator": "*",
                    "value": 1.0
                },
                "nodata": 0.0,
                "band1": {
                    "statistics": {
                        "min": 5.220785624260316e-06,
                        "max": 53509.4765625,
                        "mean": 190.9547927457038,
                        "Stdev": 487.6814438594086
                    }
                }
            }
        }
    ]
}