COUNTRY_number,value
0.000000000000000000e+00,0.000000000000000000e+00
1.000000000000000000e+00,1.642007040000000000e+08
2.000000000000000000e+00,1.891475200000000000e+08
3.000000000000000000e+00,1.093009440000000000e+08
4.000000000000000000e+00,3.958900400000000000e+07
5.000000000000000000e+00,1.200203700000000000e+07
6.000000000000000000e+00,1.249408320000000000e+08
7.000000000000000000e+00,1.528140000000000000e+08
8.000000000000000000e+00,2.591397200000000000e+07
9.000000000000000000e+00,1.113627440000000000e+08
1.000000000000000000e+01,9.591463680000000000e+08
1.100000000000000000e+01,1.594712192000000000e+09
1.200000000000000000e+01,1.553831200000000000e+08
1.300000000000000000e+01,5.376944000000000000e+06
1.400000000000000000e+01,7.322212000000000000e+07
1.500000000000000000e+01,9.180120320000000000e+08
1.600000000000000000e+01,2.487627200000000000e+07
1.700000000000000000e+01,4.113813200000000000e+07
1.800000000000000000e+01,1.723098200000000000e+07
1.900000000000000000e+01,4.512695000000000000e+06
2.000000000000000000e+01,3.064899200000000000e+08
2.100000000000000000e+01,1.183843680000000000e+08
2.200000000000000000e+01,5.533789440000000000e+08
2.300000000000000000e+01,1.452131840000000000e+08
2.400000000000000000e+01,1.389475840000000000e+08
2.500000000000000000e+01,0.000000000000000000e+00
2.600000000000000000e+01,3.760104000000000000e+07
2.700000000000000000e+01,3.668312000000000000e+07
2.800000000000000000e+01,5.087872640000000000e+08
2.900000000000000000e+01,2.324742720000000000e+08
3.000000000000000000e+01,1.792478560000000000e+08
3.100000000000000000e+01,0.000000000000000000e+00
3.200000000000000000e+01,0.000000000000000000e+00
3.300000000000000000e+01,2.650500000000000000e+05
3.400000000000000000e+01,0.000000000000000000e+00
3.500000000000000000e+01,0.000000000000000000e+00
3.600000000000000000e+01,2.007695200000000000e+08
3.700000000000000000e+01,1.132804608000000000e+09
